[ 
    { 
      "id": 1, 
      "group": "PZ-26", 
      "name": "Taras", 
      "surname": "Kvyk", 
      "gender": "Male", 
      "birthday": "2005-01-22" 
    }, 
    { 
      "id": 2, 
      "group": "PZ-26", 
      "name": "Daryna", 
      "surname": "Kaliuzhna", 
      "gender": "Female", 
      "birthday": "2005-01-09" 
    }, 
    { 
      "id": 3, 
      "group": "PZ-23", 
      "name": "Super", 
      "surname": "Student", 
      "gender": "Male", 
      "birthday": "2005-12-03" 
    } 
  ]